…
```r
repeated_SZ_subjects <- ZHH_SZ %>%
 count(grid) %>%
 filter(n > 1)

repeated_SZ_subjects
```

```
## # A tibble: 30 x 2
##     grid     n
##    <dbl> <int>
##  1  7231     3
##  2  7985     2
##  3  8158     2
##  4  8484     4
##  5  8723     4
##  6  8736     3
##  7  8872     4
##  8  8984     4
##  9  9073     2
## 10  9275     2
## # ... with 20 more rows
```
…
