…
```r
anti_join(filter(pintdf, dataset == "ds000030_R1.0.5"),tester, 
           by = c("subid"))
```

```
## # A tibble: 45 x 4
##            dataset     subid sessid
##              <chr>     <chr>  <chr>
##  1 ds000030_R1.0.5 sub-10159   <NA>
##  2 ds000030_R1.0.5 sub-10227   <NA>
##  3 ds000030_R1.0.5 sub-10273   <NA>
##  4 ds000030_R1.0.5 sub-10274   <NA>
##  5 ds000030_R1.0.5 sub-10316   <NA>
##  6 ds000030_R1.0.5 sub-10321   <NA>
##  7 ds000030_R1.0.5 sub-10361   <NA>
##  8 ds000030_R1.0.5 sub-10388   <NA>
##  9 ds000030_R1.0.5 sub-10460   <NA>
## 10 ds000030_R1.0.5 sub-10478   <NA>
## # ... with 35 more rows, and 1 more variables: filename <chr>
```
…
