…
```r
the_subcortical_guide
```

```
## # A tibble: 40 x 6
##    combined_name subcort_hemi subcort_ROI subcort_NET numvx size_is_ok
##    <chr>         <chr>        <chr>       <chr>       <int> <chr>     
##  1 L_thalamus_VI L            thalamus    VI            550 yes       
##  2 L_thalamus_SM L            thalamus    SM            137 yes       
##  3 L_thalamus_DA L            thalamus    DA             32 no        
##  4 L_thalamus_VA L            thalamus    VA             21 no        
##  5 L_thalamus_FP L            thalamus    FP            506 yes       
##  6 L_thalamus_DM L            thalamus    DM             42 yes       
##  7 L_striatum_SM L            striatum    SM            246 yes       
##  8 L_striatum_DA L            striatum    DA              1 no        
##  9 L_striatum_VA L            striatum    VA            338 yes       
## 10 L_striatum_LI L            striatum    LI            205 yes       
## # ... with 30 more rows
```
…
```
## Warning: Column `network.y`/`to` joining factor and character vector,
## coercing into character vector
```

```r
flipping_guide
```

```
## # A tibble: 21 x 5
##    network.x network.y flip_order etype.x etype.y
##    <chr>     <chr>     <chr>      <chr>   <chr>  
##  1 DM        DM        no         Cort    Cort   
##  2 SM        SM        no         Cort    Cort   
##  3 FP        FP        no         Cort    Cort   
##  4 VA        VA        no         Cort    Cort   
##  5 VI        VA        no         Cort    Cort   
##  6 VI        VI        no         Cort    Cort   
##  7 VA        DM        no         Cort    Cort   
##  8 SM        VA        no         Cort    Cort   
##  9 VI        DA        no         Cort    Cort   
## 10 VA        FP        no         Cort    Cort   
## # ... with 11 more rows
```
…
```
## # A tibble: 21 x 5
##    network.x network.y flip_order etype.x etype.y
##    <chr>     <chr>     <chr>      <chr>   <chr>  
##  1 DM        DM        no         Cort    Cort   
##  2 SM        SM        no         Cort    Cort   
##  3 FP        FP        no         Cort    Cort   
##  4 VA        VA        no         Cort    Cort   
##  5 VI        VA        yes        Cort    Cort   
##  6 VI        VI        no         Cort    Cort   
##  7 VA        DM        yes        Cort    Cort   
##  8 SM        VA        yes        Cort    Cort   
##  9 VI        DA        no         Cort    Cort   
## 10 VA        FP        yes        Cort    Cort   
## # ... with 11 more rows
```
…
