…
DX_lm_model %>% 
  filter(term %in% c("DXSSD", "SexM")) %>%
  filter(p.value < 0.1) 
```

```
## # A tibble: 1,322 x 8
## # Groups:   term [2]
##     vertex_type subcort_ROI subcort_NET PINT_ROI  term statistic
##           <chr>       <chr>      <fctr>    <chr> <chr>     <dbl>
##  1 ivertex_corr    thalamus          SM    SMI1R DXSSD  5.582403
##  2 ivertex_corr    thalamus          SM    SMF1R DXSSD  4.517097
##  3 ivertex_corr    thalamus          SM    SMI1L DXSSD  4.496493
##  4 tvertex_corr  cerebellum          VI    VI04R DXSSD -4.408996
##  5 ivertex_corr  cerebellum          LI    VAP2R DXSSD -4.405017
##  6 tvertex_corr  cerebellum          LI    VAI1R DXSSD -4.385389
##  7 ivertex_corr    striatum          VA    VAF1R DXSSD -4.346744
##  8 ivertex_corr    thalamus          SM    SMF3R DXSSD  4.335110
##  9 ivertex_corr    thalamus          VI    SMI1R DXSSD  4.218134
## 10 tvertex_corr  cerebellum          DA    VAF2L DXSSD  4.200467
## # ... with 1,312 more rows, and 2 more variables: p.value <dbl>,
## #   p_FDR <dbl>
```
…
