…
DX_lm_model %>% 
  filter(term %in% c("DXSSD", "SexM")) %>%
  filter(p.value < 0.1) 
```

```
## # A tibble: 2,038 x 8
## # Groups:   term [2]
##     vertex_type subcort_ROI subcort_NET PINT_ROI  term statistic
##           <chr>       <chr>      <fctr>    <chr> <chr>     <dbl>
##  1 ivertex_corr    thalamus          SM    SMI1R DXSSD  7.104822
##  2 ivertex_corr  cerebellum          VA    SMT1R DXSSD  5.903000
##  3 ivertex_corr    thalamus          SM    SMF1R DXSSD  5.872352
##  4 ivertex_corr  cerebellum          VA    SMF3R DXSSD  5.866917
##  5 ivertex_corr    thalamus          VI    SMI1R DXSSD  5.750574
##  6 ivertex_corr    striatum          VA    VAF1R DXSSD -5.744484
##  7 ivertex_corr    thalamus          SM    SMI1L DXSSD  5.624849
##  8 ivertex_corr    thalamus          SM    SMF3R DXSSD  5.603653
##  9 ivertex_corr  cerebellum          VA    SMF2L DXSSD  5.503323
## 10 ivertex_corr    striatum          VA    VAF1L DXSSD -5.337655
## # ... with 2,028 more rows, and 2 more variables: p.value <dbl>,
## #   p_FDR <dbl>
```
…
