…
```
## # A tibble: 118 x 8
## # Groups:   edge_group [42]
##      num use_hypo use_hyper vertex_type edge_group    hyper  hypo hyperhypo_diff
##    <int> <lgl>    <lgl>     <chr>       <chr>         <dbl> <dbl>          <dbl>
##  1     0 FALSE    FALSE     pvertex     CortDA_cereb…     2     4         -0.333
##  2     0 FALSE    FALSE     tvertex     CortDA_cereb…     4     1          0.6  
##  3     0 FALSE    FALSE     tvolume     CortDA_cereb…     2     2          0    
##  4     0 FALSE    FALSE     tvolume     CortDA_CortDA     2     0          1    
##  5     0 FALSE    FALSE     pvertex     CortDA_CortVI     1     0          1    
##  6     0 FALSE    FALSE     tvertex     CortDA_CortVI     0     1         -1    
##  7     0 FALSE    FALSE     tvolume     CortDA_CortVI     1     1          0    
##  8     0 FALSE    FALSE     tvolume     CortDA_stria…     6     0          1    
##  9     0 FALSE    FALSE     pvertex     CortDM_cereb…    14     5          0.474
## 10     0 FALSE    FALSE     tvertex     CortDM_cereb…     4    10         -0.429
## # … with 108 more rows
```
…
