…
```r
inner_join(pheno, pheno_extended, by = c("subject", "dataset")) %>%
  select(subject, dataset) %>%
  distinct()
```

```
## # A tibble: 496 x 2
##    subject   dataset        
##    <chr>     <chr>          
##  1 sub-10159 ds000030_R1.0.5
##  2 sub-10206 ds000030_R1.0.5
##  3 sub-10217 ds000030_R1.0.5
##  4 sub-10225 ds000030_R1.0.5
##  5 sub-10227 ds000030_R1.0.5
##  6 sub-10228 ds000030_R1.0.5
##  7 sub-10235 ds000030_R1.0.5
##  8 sub-10249 ds000030_R1.0.5
##  9 sub-10273 ds000030_R1.0.5
## 10 sub-10274 ds000030_R1.0.5
## # … with 486 more rows
```
…
