Chapter 10 calculate weighted subject scores by chopping up the matrix | SSD PINT analyses
…
  mutate(hyperhypo_diff = (hyper - hypo)/(hyper + hypo),
         use_hypo = max(hyperhypo_diff) < 0.1 & min(hypo) > size_threshold,
         use_hyper = min(hyperhypo_diff) > -0.1 & min(hyper) > size_threshold,
         num = use_hypo + use_hyper) %>%
  select(num, use_hypo, use_hyper, everything()) %>%
  arrange(num, edge_group, vertex_type) 
  # ungroup() %>%
  # select(vertex_type, edge_group, hyperhypo_diff, max_size) %>%
  # gather(tmp_col, tmp_vals, hyperhypo_diff, max_size) %>%
  # unite(vertex_meas, tmp_col, vertex_type) %>%
  # spread(vertex_meas, tmp_vals) %>%
  # arrange(-abs(hyperhypo_diff_tvolume))
groupwise_weights_table

## # A tibble: 118 x 8
## # Groups:   edge_group [42]
##      num use_hypo use_hyper vertex_type edge_group    hyper  hypo hyperhypo_diff
##    <int> <lgl>    <lgl>     <chr>       <chr>         <dbl> <dbl>          <dbl>
##  1     0 FALSE    FALSE     pvertex     CortDA_cereb…     2     4         -0.333
##  2     0 FALSE    FALSE     tvertex     CortDA_cereb…     4     1          0.6  
##  3     0 FALSE    FALSE     tvolume     CortDA_cereb…     2     2          0    
##  4     0 FALSE    FALSE     tvolume     CortDA_CortDA     2     0          1    
##  5     0 FALSE    FALSE     pvertex     CortDA_CortVI     1     0          1    
##  6     0 FALSE    FALSE     tvertex     CortDA_CortVI     0     1         -1    
##  7     0 FALSE    FALSE     tvolume     CortDA_CortVI     1     1          0    
##  8     0 FALSE    FALSE     tvolume     CortDA_stria…     6     0          1    
##  9     0 FALSE    FALSE     pvertex     CortDM_cereb…    14     5          0.474
## 10     0 FALSE    FALSE     tvertex     CortDM_cereb…     4    10         -0.429
## # … with 108 more rows
…
weighted_subject_scores <- weighted_subject_scores%>%
  group_by(vertex_type, edge_group, effect_direction) %>%
  mutate(upper_wFC = mean(wFC_score) + 3*sd(wFC_score),
         lower_wFC = mean(wFC_score) - 3*sd(wFC_score),
         upper_out = upper_wFC < wFC_score,
         lower_out = lower_wFC > wFC_score,
         wFC_score_cliped = if_else(upper_out, upper_wFC, wFC_score),
         wFC_score_cliped = if_else(lower_out, lower_wFC, wFC_score_cliped)) 
#  facet_grid(edge_group ~ vertex_type, scales = "free")

inner_join(pheno, pheno_extended, by = c("subject", "dataset")) %>%
  select(subject, dataset) %>%
  distinct()

## # A tibble: 496 x 2
##    subject   dataset        
##    <chr>     <chr>          
##  1 sub-10159 ds000030_R1.0.5
##  2 sub-10206 ds000030_R1.0.5
##  3 sub-10217 ds000030_R1.0.5
##  4 sub-10225 ds000030_R1.0.5
##  5 sub-10227 ds000030_R1.0.5
##  6 sub-10228 ds000030_R1.0.5
##  7 sub-10235 ds000030_R1.0.5
##  8 sub-10249 ds000030_R1.0.5
##  9 sub-10273 ds000030_R1.0.5
## 10 sub-10274 ds000030_R1.0.5
## # … with 486 more rows
…
