Chapter 5 Multi-Dimensional Scaling Stats on PINT ROI locations | SSD PINT analyses
…
  distout <- as.tibble(distout) %>%
    select(src_file, mds1, mds2)
  
  return(as.tibble(distout))
}

subsub %>%
  filter(roiidx == 1) %>%
  select(subid1, subid2, distance) %>%
  mds_sub2sub()

## Warning: `as.tibble()` is deprecated, use `as_tibble()` (but mind the new semantics).
## This warning is displayed once per session.

## # A tibble: 494 x 3
##    src_file                                           mds1  mds2
##    <chr>                                             <dbl> <dbl>
##  1 sub-10159_task-rest_bold_desc-clean_bold         -8.90   6.21
##  2 sub-10161_ses-03_task-rest_bold_desc-clean_bold -12.4   -6.73
##  3 sub-10185_ses-03_task-rest_bold_desc-clean_bold -16.8    2.83
##  4 sub-10186_ses-02_task-rest_bold_desc-clean_bold   2.30  -6.17
##  5 sub-10206_task-rest_bold_desc-clean_bold          6.98  -6.90
##  6 sub-10217_task-rest_bold_desc-clean_bold          0.334  5.22
##  7 sub-10225_task-rest_bold_desc-clean_bold         -5.33  -2.67
##  8 sub-10227_task-rest_bold_desc-clean_bold         -1.44   7.06
##  9 sub-10228_task-rest_bold_desc-clean_bold         -2.86  -3.21
## 10 sub-10235_task-rest_bold_desc-clean_bold          3.24   1.98
## # … with 484 more rows
…
