Chapter 6 Seedcorr Area Stats | SSD PINT analyses
…
Looks like two people might need to be reprocessed if this works out.

combined_df %>%
  drop_na(DX) %>%
  group_by(NETWORK, vx_gt_thres) %>%
  filter(Age > 17, Age < 51) %>%
  filter(vx_gt_thres < 0.6) %>%
  do(tidy(aov(lm(num_sc_vx_gt ~ DX*Age_pt + Sex + fd_mean_pt + Scanner + SurfArea_pt,.)))) %>%
  ungroup() %>% group_by(term) %>%
  mutate(p_FDR = p.adjust(p.value, method = "fdr")) %>%
  filter(term != "(Intercept)", term != "Scanner", p_FDR < 0.06) %>%
  arrange(NETWORK, term) 

## # A tibble: 43 x 9
## # Groups:   term [1]
##    NETWORK vx_gt_thres term      df  sumsq meansq statistic p.value   p_FDR
##      <dbl>       <dbl> <chr>  <dbl>  <dbl>  <dbl>     <dbl>   <dbl>   <dbl>
##  1       4        0.3  Age_pt     1 1.53e8 1.53e8      8.86 3.07e-3 1.11e-2
##  2       4        0.32 Age_pt     1 1.60e8 1.60e8      9.96 1.70e-3 8.06e-3
##  3       4        0.34 Age_pt     1 1.68e8 1.68e8     11.2  8.65e-4 5.19e-3
##  4       4        0.36 Age_pt     1 1.72e8 1.72e8     12.5  4.59e-4 3.45e-3
##  5       4        0.38 Age_pt     1 1.74e8 1.74e8     13.8  2.30e-4 1.88e-3
##  6       4        0.4  Age_pt     1 1.76e8 1.76e8     15.3  1.04e-4 9.33e-4
##  7       4        0.42 Age_pt     1 1.74e8 1.74e8     16.8  4.83e-5 4.83e-4
##  8       4        0.44 Age_pt     1 1.72e8 1.72e8     18.5  2.13e-5 2.39e-4
##  9       4        0.46 Age_pt     1 1.68e8 1.68e8     20.1  9.17e-6 1.18e-4
## 10       4        0.48 Age_pt     1 1.62e8 1.62e8     21.9  3.75e-6 5.63e-5
## # … with 33 more rows
…
combined_df %>% 
  filter(Age > 17, Age < 51) %>%
  mutate(Age_decade = case_when(Age < 20 ~ '17-20',
                               Age >= 20 & Age < 30 ~ '20-30',
                               Age >= 30 & Age < 40 ~ '30-40',
                               Age >= 40 & Age < 50 ~ '40-50',
                               Age > 50 ~ "50 above")) %>%
  mutate(Age_coarse = case_when(Age < 30 ~ "young adult",
                                Age > 35 ~ "middle age")) %>%
  filter(NETWORK == 5, vx_gt_thres ==0.5) %>%
  count(DX, Site, Age_coarse)

## # A tibble: 24 x 4
##    DX    Site     Age_coarse      n
##    <chr> <chr>    <chr>       <int>
##  1 CTRL  CMH      <NA>            7
##  2 CTRL  CMH      middle age      3
##  3 CTRL  CMH      young adult    30
##  4 CTRL  COBRE    <NA>            7
##  5 CTRL  COBRE    middle age     13
##  6 CTRL  COBRE    young adult    14
##  7 CTRL  ds000030 <NA>           14
##  8 CTRL  ds000030 middle age     30
##  9 CTRL  ds000030 young adult    61
## 10 CTRL  ZHH      <NA>           12
## # … with 14 more rows
